10:41:02 **** Incremental Build of configuration Release for project TestDS3231 ****
"C:\\eclipse\\cpp-neon\\eclipse\\arduinoPlugin\\tools\\make\\make" all 
'Building file: ../TestDS3231.cpp'
'Starting C++ compile'
"C:\eclipse\cpp-neon\eclipse\arduinoPlugin\tools\arduino\avr-gcc\4.9.2-atmel3.5.3-arduino2/bin/avr-g++" -c -g -Os -std=gnu++11 -fpermissive -fno-exceptions -ffunction-sections -fdata-sections -fno-threadsafe-statics -MMD -flto -mmcu=atmega2560 -DF_CPU=16000000L -DARDUINO=10609 -DARDUINO_AVR_MEGA2560 -DARDUINO_ARCH_AVR   -I"C:\eclipse\cpp-neon\eclipse\arduinoPlugin\packages\arduino\hardware\avr\1.6.14\cores\arduino" -I"C:\eclipse\cpp-neon\eclipse\arduinoPlugin\packages\arduino\hardware\avr\1.6.14\variants\mega" -I"C:\eclipse\cpp-neon\eclipse\arduinoPlugin\packages\arduino\hardware\avr\1.6.14\libraries\Wire" -I"C:\eclipse\cpp-neon\eclipse\arduinoPlugin\packages\arduino\hardware\avr\1.6.14\libraries\Wire\src" -I"C:\Users\alptug\Documents\Arduino\libraries\DS3231" -MMD -MP -MF"TestDS3231.cpp.d" -MT"TestDS3231.cpp.o" -D__IN_ECLIPSE__=1 -x c++ "../TestDS3231.cpp" -o "TestDS3231.cpp.o"  -Wall
../TestDS3231.cpp:154:17: warning: character constant too long for its type
    Serial.print('pm ');
                 ^
../TestDS3231.cpp:156:17: warning: character constant too long for its type
    Serial.print('am ');
                 ^
../TestDS3231.cpp:179:17: warning: multi-character character constant [-Wmultichar]
    Serial.print('pm');
                 ^
../TestDS3231.cpp:181:17: warning: multi-character character constant [-Wmultichar]
    Serial.print('am');
                 ^
../TestDS3231.cpp:189:15: warning: character constant too long for its type
  Serial.print('Alarm bits: ');
               ^
'Finished building: ../TestDS3231.cpp'
' '
'Starting combiner'
"C:\eclipse\cpp-neon\eclipse\arduinoPlugin\tools\arduino\avr-gcc\4.9.2-atmel3.5.3-arduino2/bin/avr-gcc" -Os -Wl,--gc-sections,--relax -mmcu=atmega2560 -o "C:/Users/alptug/Documents/arduino_workspace/TestDS3231/Release/TestDS3231.elf"   .\TestDS3231.cpp.o  .\libraries\Wire\src\utility\twi.c.o  .\libraries\Wire\src\Wire.cpp.o  .\libraries\DS3231\DS3231.cpp.o   arduino.ar   "-LC:/Users/alptug/Documents/arduino_workspace/TestDS3231/Release" -lm
'Finished building: TestDS3231.elf'
' '
'Create eeprom image'
"C:\eclipse\cpp-neon\eclipse\arduinoPlugin\tools\arduino\avr-gcc\4.9.2-atmel3.5.3-arduino2/bin/avr-objcopy" -O ihex -R .eeprom  "C:\Users\alptug\Documents\arduino_workspace\TestDS3231/Release/TestDS3231.elf" "C:\Users\alptug\Documents\arduino_workspace\TestDS3231/Release/TestDS3231.hex"
"C:\eclipse\cpp-neon\eclipse\arduinoPlugin\tools\arduino\avr-gcc\4.9.2-atmel3.5.3-arduino2/bin/avr-objcopy" -O ihex -j .eeprom --set-section-flags=.eeprom=alloc,load --no-change-warnings --change-section-lma .eeprom=0  "C:\Users\alptug\Documents\arduino_workspace\TestDS3231/Release/TestDS3231.elf" "C:\Users\alptug\Documents\arduino_workspace\TestDS3231/Release/TestDS3231.eep"
'Finished building: TestDS3231.hex'
' '
'Building target: TestDS3231'
'Printing size:'
"C:\eclipse\cpp-neon\eclipse\arduinoPlugin\tools\arduino\avr-gcc\4.9.2-atmel3.5.3-arduino2/bin/avr-size" -A "C:/Users/alptug/Documents/arduino_workspace/TestDS3231/Release/TestDS3231.elf"
C:/Users/alptug/Documents/arduino_workspace/TestDS3231/Release/TestDS3231.elf  :
section                     size      addr
.data                        208   8389120
.text                       7818         0
.bss                         377   8389328
.comment                      17         0
.note.gnu.avr.deviceinfo      64         0
.debug_info                 3004         0
.debug_abbrev               2842         0
.debug_line                   26         0
.debug_str                   998         0
Total                      15354


'Finished building target: TestDS3231'
' '

10:41:09 Build Finished (took 6s.566ms)

